player1,player2,bracket,stage,week,map_draft,civ_draft,map_draft_host,map_draft_guest,civ_draft_host,civ_draft_guest
dodo3011,OrangeMamba,Mercenary,Group,1,dNFJm,UKEVX,,,,
felumlee,risendragongaming,Recruit,Group,1,,,,,,
risendragongaming,felumlee,Recruit,Group,1,,,,,,
SlateRS,dimi1001,Knight,Group,1,rwsNQ,qPcrn,,,,
LordBender,Lucky23,Lancer,Group,1,LmbIV,ftkmU,,,,
m0in,JawolopingChris,Lancer,Group,1,Gdegz,Flyxo,,,,
Chuptaburger,powmatt,Recruit,Group,1,laFNY,yTmFj,,,,
maxymczech ,ghostwriter39,Knight,Group,1,VjPqz,SKfmy,,,,
maxymczech ,DeIceman,Knight,Group,1,JXFaa,KlcKi,,,,
Age of Hempires,Chipmunk,Mercenary,Group,1,cusXi,aKGRv,,,,
stigz,leoniden,Lancer,Group,1,bRSpg,FIuPg,stigz,leoniden,stigz,leoniden
Flying Mouse,AAnrrat,Knight,Group,1,uGIDW,rGLYi,,,,
Flying Mouse,Baron Morg VW,Knight,Group,1,ULjqc,dYWSJ,,,,
breakfast5290,.sneakysalmon,General,Group,1,clXIk,JJIGL,,,,
PygmyGiant,watermullins,Soldier,Group,1,kpSNv,fJuAM,,,,
AAnrrat,Baron Morg VW,Knight,Group,1,JofkN,rLXUo,,,,
Hagenhagen,Age of Hempires,Mercenary,Group,1,dLLZp,iZQEY,,,,
Spoonk,TDI,Knight,Group,1,TdegW,yOwKa,,,,
scrappy coco,powmatt,Recruit,Group,1,ROlmR,UMzze,,,,
Lucky23,JawolopingChris,Lancer,Group,1,OaWLQ,rEpML,,,,
Jiinska,Perilous Penguin,Mercenary,Group,1,QKBza,FAjyM,,,,
black_lotus_aoe,reaper_loses,Lancer,Group,1,BgAhB,HwDlO,,,,
0BackInBlack0,Sokol,Soldier,Group,1,WsmXj,mneUO,,,,
powmatt,german4720,Recruit,Group,1,FTMhV,AMkHO,,,,
dodo3011,Nessy,Mercenary,Group,1,cCyTU,ycICU,,,,
harryt_aoe,Sneakystab,Lancer,Group,1,oVOHi,VOiRG,,,,
Jiinska,OrangeMamba,Mercenary,Group,1,ZpElX,ZJHDT,,,,
TheNando,TDI,Knight,Group,1,GDOSe,wQPgD,,,,
Marvo5297,dodo3011,Mercenary,Group,1,QfhvM,sCYXU,,,,
dodo3011,Jiinska,Mercenary,Group,1,mEKEV,yLtTW,,,,
TheNando,Spoonk,Knight,Group,1,CnosK,XPdOI,,,,
_merten,Hannes4603,General,Group,1,,,,,,
Reklewt,powmatt,Recruit,Group,1,,,,,,
Silincer,risendragongaming,Recruit,Group,1,dfUFn,iBCaW,,,,
scrappy coco,german4720,Recruit,Group,1,,,,,,
jojo_ki,risendragongaming,Recruit,Group,1,kVrJE,yWDPc,,,,
Neo,J0N-PERKiNS,Lancer,Group,1,LvsuT,kVDWc,,,,
mrplanner,_merten,General,Group,1,,,,,,
mrplanner,Hannes4603,General,Group,1,,,,,,
mrplanner,Lenni,General,Group,1,,,,,,
mrplanner,qeetsa,General,Group,1,,,,,,
_merten,Lenni,General,Group,1,,,,,,
_merten,qeetsa,General,Group,1,comWS,oZzGf,,,,
Hannes4603,Lenni,General,Group,1,,,,,,
Hannes4603,qeetsa,General,Group,1,tlhFi,nbhuk,,,,
Lenni,qeetsa,General,Group,1,,,,,,
breakfast5290,xRavyn,General,Group,1,zCFuv,ymIQw,,,,
breakfast5290,xyaxid_mx,General,Group,1,,,,,,
breakfast5290,Argo,General,Group,1,,,,,,
.sneakysalmon,xRavyn,General,Group,1,HuIZJ,ZTtaB,,,,
.sneakysalmon,xyaxid_mx,General,Group,1,,,,,,
.sneakysalmon,Argo,General,Group,1,,,,,,
xRavyn,xyaxid_mx,General,Group,1,,,,,,
xRavyn,Argo,General,Group,1,,,,,,
xyaxid_mx,Argo,General,Group,1,,,,,,
black_lotus_aoe,MegaFish,Lancer,Group,1,,,,,,
black_lotus_aoe,For_Ruthless,Lancer,Group,1,oEQvI,vzYcv,,,,
MegaFish,reaper_loses,Lancer,Group,1,,,,,,
MegaFish,For_Ruthless,Lancer,Group,1,,,,,,
reaper_loses,For_Ruthless,Lancer,Group,1,MijTA,JOOwv,,,,
harryt_aoe,stigz,Lancer,Group,1,,,,,,
harryt_aoe,leoniden,Lancer,Group,1,KQQwb,YAcfL,harryt_aoe,leoniden,harryt_aoe,leoniden
stigz,Sneakystab,Lancer,Group,1,,,,,,
leoniden,Sneakystab,Lancer,Group,1,qiioh,MBRvP,leoniden,Sneakystab,leoniden,Sneakystab
LordBender,m0in,Lancer,Group,1,nylVa,fPmTX,,,,
LordBender,JawolopingChris,Lancer,Group,1,agSAf,PoOfc,,,,
m0in,Lucky23,Lancer,Group,1,skehP,aVIZz,,,,
phoeboselpollo,Neo,Lancer,Group,1,rhFwL,KORQD,,,,
phoeboselpollo,DaD m24stefan,Lancer,Group,1,dqkxV,OPcTm,,,,
phoeboselpollo,J0N-PERKiNS,Lancer,Group,1,xFVhR,zXcnD,,,,
Neo,DaD m24stefan,Lancer,Group,1,hVfUr,urRjP,,,,
DaD m24stefan,J0N-PERKiNS,Lancer,Group,1,TFFUu,qGdJr,,,,
Flying Mouse,Matthew8520,Knight,Group,1,hypsQ,vuudv,,,,
AAnrrat,Matthew8520,Knight,Group,1,,,,,,
Baron Morg VW,Matthew8520,Knight,Group,1,FfcQT,kybOF,,,,
maxymczech ,apach,Knight,Group,1,UPcKE,mCkgN,,,,
DeIceman,ghostwriter39,Knight,Group,1,LDeVp,Tycmz,,,,
DeIceman,apach,Knight,Group,1,bOjmQ,iJyEC,,,,
ghostwriter39,apach,Knight,Group,1,QKmmc,XQGjt,,,,
TheNando,THRILLHO,Knight,Group,1,wAzwU,wTrfG,,,,
Spoonk,THRILLHO,Knight,Group,1,RVmak,yVVVq,,,,
TDI,THRILLHO,Knight,Group,1,pyAqn,gaPQe,,,,
SlateRS,Nino,Knight,Group,1,pEkPj,oiGfg,,,,
SlateRS,bgmoro,Knight,Group,1,GTumB,tnJxK,,,,
Nino,bgmoro,Knight,Group,1,lAGFg,TeQDc,,,,
Nino,dimi1001,Knight,Group,1,quDcm,wtkvB,,,,
bgmoro,dimi1001,Knight,Group,1,Fgzmw,EvAok,,,,
Hagenhagen,Olli90,Mercenary,Group,1,,,,,,
Hagenhagen,Chipmunk,Mercenary,Group,1,yNlPo,AfGhx,,,,
Hagenhagen,JagWarrior,Mercenary,Group,1,nanBS,pcoMU,,,,
Age of Hempires,Olli90,Mercenary,Group,1,,,,,,
Age of Hempires,JagWarrior,Mercenary,Group,1,QMzwi,hjgqa,,,,
Olli90,Chipmunk,Mercenary,Group,1,,,,,,
Olli90,JagWarrior,Mercenary,Group,1,,,,,,
Chipmunk,JagWarrior,Mercenary,Group,1,dZoZj,rWiLe,,,,
Marvo5297,Nessy,Mercenary,Group,1,NhyPp,ijtOx,,,,
Marvo5297,Jiinska,Mercenary,Group,1,Shmme,JRnpn,,,,
Marvo5297,Perilous Penguin,Mercenary,Group,1,WEPRk,muRme,,,,
Marvo5297,OrangeMamba,Mercenary,Group,1,DYMHS,MJfIk,,,,
dodo3011,Perilous Penguin,Mercenary,Group,1,uhTWB,wTJyk,,,,
Nessy,Jiinska,Mercenary,Group,1,DuHiZ,ytTsC,,,,
Nessy,Perilous Penguin,Mercenary,Group,1,QAWJU,nxvro,,,,
Nessy,OrangeMamba,Mercenary,Group,1,WdGci,xqdLH,,,,
Perilous Penguin,OrangeMamba,Mercenary,Group,1,fBMay,JocYI,,,,
0BackInBlack0,petedunham,Soldier,Group,1,DUhHe,fHrZw,,,,
0BackInBlack0,redneal314,Soldier,Group,1,cpkLF,scuoN,,,,
0BackInBlack0,L Fanboy,Soldier,Group,1,sozcg,hQWJs,0BackInBlack0,L Fanboy,0BackInBlack0,L Fanboy
0BackInBlack0,Nessius Blaze,Soldier,Group,1,ithtI,WEZbA,,,,
petedunham,redneal314,Soldier,Group,1,nfnTn,PkZKR,,,,
Sokol,L Fanboy,Soldier,Group,1,svWEA,RtCld,Sokol,L Fanboy,Sokol,L Fanboy
petedunham,Nessius Blaze,Soldier,Group,1,,,,,,
redneal314,L Fanboy,Soldier,Group,1,lIwLc,DSbrA,redneal314,L Fanboy,redneal314,L Fanboy
redneal314,Nessius Blaze,Soldier,Group,1,dOSNC,aIIUv,,,,
L Fanboy,Nessius Blaze,Soldier,Group,1,WcuLt,AojCr,L Fanboy,Nessius Blaze,L Fanboy,Nessius Blaze
NOPE1585,PygmyGiant,Soldier,Group,1,eaysr,aqrps,,,,
NOPE1585,watermullins,Soldier,Group,1,,,,,,
NOPE1585,wertball,Soldier,Group,1,fgSwm,FvNzd,,,,
NOPE1585,pkinesis,Soldier,Group,1,,,,,,
PygmyGiant,wertball,Soldier,Group,1,pFVIW,MEUca,,,,
PygmyGiant,pkinesis,Soldier,Group,1,JsHNi,IvIRT,,,,
watermullins,wertball,Soldier,Group,1,,,,,,
watermullins,pkinesis,Soldier,Group,1,,,,,,
wertball,pkinesis,Soldier,Group,1,JANfL,qZjBt,,,,
Chuptaburger,Reklewt,Recruit,Group,1,,,,,,
Chuptaburger,scrappy coco,Recruit,Group,1,lNWtR,muBYf,,,,
Chuptaburger,german4720,Recruit,Group,1,,,,,,
Reklewt,scrappy coco,Recruit,Group,1,,,,,,
Reklewt,german4720,Recruit,Group,1,,,,,,
jojo_ki,Silincer,Recruit,Group,1,KqMQx,EZDaw,,,,
jojo_ki,LiMe86,Recruit,Group,1,,,,,,
jojo_ki,felumlee,Recruit,Group,1,,,,,,
Silincer,LiMe86,Recruit,Group,1,,,,,,
Silincer,felumlee,Recruit,Group,1,VqzpU,oQcbn,,,,
LiMe86,felumlee,Recruit,Group,1,,,,,,
risendragongaming,felumlee,Recruit,Group,1,,,,,,
LiMe86,risendragongaming,Recruit,Group,1,,,,,,
redneal314,Sokol,Soldier,Group,1,cRdDm,CcTKa,,,,
Silincer,powmatt,Recruit,Quarterfinals,2,TFzUy,qmfXm,Silincer,powmatt,Silincer,powmatt
Chuptaburger,risendragongaming,Recruit,Quarterfinals,2,,,,,,
NOPE1585,0BackInBlack0,Soldier,Quarterfinals,2,ODPwF,oeETy,NOPE1585,0BackInBlack0,NOPE1585,0BackInBlack0
PygmyGiant,Sokol,Soldier,Quarterfinals,2,NdKrT,LNUuT,PygmyGiant,Sokol,PygmyGiant,Sokol
redneal314,wertball,Soldier,Quarterfinals,2,HJCeu,YDScc,redneal314,wertball,redneal314,wertball
Hagenhagen,Perilous Penguin,Mercenary,Quarterfinals,2,KIBAi,fCiFl,Hagenhagen,Perilous Penguin,Hagenhagen,Perilous Penguin
Marvo5297,Chipmunk,Mercenary,Quarterfinals,2,,,,,,
Nessy,JagWarrior,Mercenary,Quarterfinals,2,iCZPi,CSpwp,Nessy,JagWarrior,Nessy,JagWarrior
Age of Hempires,Jiinska,Mercenary,Quarterfinals,2,jGuhW,yVBuP,Age of Hempires,Jiinska,Age of Hempires,Jiinska
Baron Morg VW,bgmoro,Knight,Quarterfinals,2,WxTzm,uMegu,Baron Morg VW,bgmoro,Baron Morg VW,bgmoro
Spoonk,maxymczech ,Knight,Quarterfinals,2,nkGgf,PNctD,Spoonk,maxymczech ,Spoonk,maxymczech 
ghostwriter39,THRILLHO,Knight,Quarterfinals,2,edPCj,Eslqq,ghostwriter39,THRILLHO,ghostwriter39,THRILLHO
SlateRS,Flying Mouse,Knight,Quarterfinals,2,FBjaQ,tIpug,SlateRS,Flying Mouse,SlateRS,Flying Mouse
reaper_loses,DaD m24stefan,Lancer,Quarterfinals,2,eozMv,WnXQi,reaper_loses,DaD m24stefan,reaper_loses,DaD m24stefan
LordBender,Sneakystab,Lancer,Quarterfinals,2,tPpCF,VKwLY,LordBender,Sneakystab,LordBender,Sneakystab
leoniden,Lucky23,Lancer,Quarterfinals,2,FNfVx,LPoEQ,leoniden,Lucky23,leoniden,Lucky23
phoeboselpollo,black_lotus_aoe,Lancer,Quarterfinals,2,gJHIx,feMcu,phoeboselpollo,black_lotus_aoe,phoeboselpollo,black_lotus_aoe
.sneakysalmon,qeetsa,General,Quarterfinals,2,TZfCS,jdHrD,.sneakysalmon,Qeetsa,.sneakysalmon,Qeetsa
Hannes4603,xRavyn,General,Quarterfinals,2,FjxJh,vqjxq,Hannes4603,xRavyn,Hannes4603,xRavyn
scrappy coco,Silincer,Recruit,Semifinals,3,vEfkp,NiKNM,scrappy coco,Silincer,scrappy coco,Silincer
jojo_ki,risendragongaming,Recruit,Semifinals,3,zQKpk,SfNXP,jojo_ki,risendragongaming,jojo_ki,risendragongaming
L Fanboy,0BackInBlack0,Soldier,Semifinals,3,jhPkW,hvUfn,L Fanboy,0BackInBlack0,L Fanboy,0BackInBlack0
PygmyGiant,redneal314,Soldier,Semifinals,3,IcLwb,iZtEN,PygmyGiant,redneal314,PygmyGiant,redneal314
Hagenhagen,Chipmunk,Mercenary,Semifinals,3,gSSzA,XxRDU,Hagenhagen,Chipmunk,Hagenhagen,Chipmunk
JagWarrior,Age of Hempires,Mercenary,Semifinals,3,qggBk,DeLiS,JagWarrior,Age of Hempires,JagWarrior,Age of Hempires
bgmoro,maxymczech ,Knight,Semifinals,3,uVmJR,qsyHJ,bgmoro,maxymczech ,bgmoro,maxymczech 
THRILLHO,Flying Mouse,Knight,Semifinals,3,YyTtB,EtUsJ,THRILLHO,Flying Mouse,THRILLHO,Flying Mouse
reaper_loses,LordBender,Lancer,Semifinals,3,SjdAu,XNFHI,reaper_loses,LordBender,reaper_loses,LordBender
leoniden,phoeboselpollo,Lancer,Semifinals,3,ykoAr,EINJE,leoniden,phoeboselpollo,leoniden,phoeboselpollo
_merten,.sneakysalmon,General,Semifinals,3,TlCgx,vlrcX,_merten,.sneakysalmon,_merten,.sneakysalmon
breakfast5290,xRavyn,General,Semifinals,3,TieQF,YAMXL,breakfast5290,xRavyn,breakfast5290,xRavyn
scrappy coco,jojo_ki,Recruit,Finals,4,ljwRA,ZWXSg,jojo_ki,scrappy coco,jojo_ki,scrappy coco
L Fanboy,PygmyGiant,Soldier,Finals,4,GzKwh,XiEcI,L Fanboy,PygmyGiant,L Fanboy,PygmyGiant
Hagenhagen,Age of Hempires,Mercenary,Finals,4,wCScY,sSjeO,Hagenhagen,Age of Hempires,Hagenhagen,Age of Hempires
maxymczech ,Flying Mouse,Knight,Finals,4,fYYyi,IeTif,maxymczech ,Flying Mouse,maxymczech ,Flying Mouse
LordBender,leoniden,Lancer,Finals,4,,,,,,
.sneakysalmon,breakfast5290,General,Finals,4,Ozpbl,Bsmue,breakfast5290,.sneakysalmon,朝食,.sneakysalmon
