discord,player_name,player_profile,bracket,id,seed,group,timezone,country
! TeMo,TeMo,https://www.aoe2insights.com/user/12782651/,Champion,19219486,1,A,GMT + 1,ma
nezzar,Nezzar,https://www.aoe2insights.com/user/2274841/,Champion,2274841,2,B,GMT + 8,hk
macluffy,macluffy,https://www.aoe2insights.com/user/453821/,Champion,453821,3,C,GMT + 1,be
T90Official,T90Official,https://www.aoe2insights.com/user/197930/,Champion,197930,4,D,GMT - 5,us
hoi0754,hoi,https://www.aoe2insights.com/user/2952768/,Champion,2952768,5,D,GMT + 1,at
weandinchester,LACA | Wean Dinchester,https://www.aoe2insights.com/user/300565/,Champion,300565,6,C,GMT + 1,de
Faneth,[LW] Faneht,https://www.aoe2insights.com/user/2482098/,Champion,2482098,7,B,GMT + 1,nl
mercenary1383,boywonder_,https://www.aoe2insights.com/user/4240317/,Champion,4240317,8,A,GMT + 3,tr
ilovebaskets,ilovebaskets,https://www.aoe2insights.com/user/1292487/,Champion,1292487,9,A,GMT - 7,us
ar12,AR12,https://www.aoe2insights.com/user/229173/,Champion,229173,10,B,GMT + 1,de
Flor5509,[LW] Kiddo,https://www.aoe2insights.com/user/12459534/,Champion,16931969,11,C,GMT + 1,fr
hadeo17,Hadeo,https://www.aoe2insights.com/user/2766375/,Champion,2766375,12,D,GMT + 1,fr
emuwarrior,Emu Warrior,https://www.aoe2insights.com/user/3970269/,Champion,3970269,13,D,GMT - 5,us
anakinaoe,DGHIR | Anakin,https://www.aoe2insights.com/user/4799871/,Champion,4799871,14,C,GMT - 3,ar
Mastyjames,Mastyjames,https://www.aoe2insights.com/user/277618/,Champion,277618,15,B,GMT - 7,us
yomi4679,yomi,https://www.aoe2insights.com/user/12102078/,Champion,14119237,16,A,GMT + 9,jp
enzberg,Enzberg,https://www.aoe2insights.com/user/220916/,Paladin,220916,1,A,GMT + 1,de
Benanji,Benanji,https://www.aoe2insights.com/user/2463959/,Paladin,2463959,2,B,GMT + 2,de
__oladushek,OLADUSHEK,https://www.aoe2insights.com/user/1853187/,Paladin,1853187,3,C,GMT + 3,by
lord_brosiah,Lord_Brosiah,https://www.aoe2insights.com/user/985494/,Paladin,985494,4,D,GMT - 7,us
noah,noah23,https://www.aoe2insights.com/user/5646670/,Paladin,5646670,5,D,GMT - 5,us
andae23,TrCL.andae23,https://www.aoe2insights.com/user/237368/,Paladin,237368,6,C,GMT + 1,nl
Elbanovic,Elbanovic,https://www.aoe2insights.com/user/4401747/,Paladin,4401747,7,B,GMT + 1,dk
invisible_duk,InvisibleDuk,https://www.aoe2insights.com/user/5987502/,Paladin,5987502,8,A,GMT + 11,au
nuclearpasta95,NuclearPasta,https://www.aoe2insights.com/user/559085/,Paladin,559085,9,A,GMT - 8,ca
bigtastybacon_aoe,BigTastyBacon,https://www.aoe2insights.com/user/4741867/,Paladin,4741867,10,B,GMT + 1,de
rayaoe,McNut,https://www.aoe2insights.com/user/213474/,Paladin,213474,11,C,GMT - 5,us
whiteknight7656,White Knight,https://www.aoe2insights.com/user/4249973/,Paladin,4249973,12,D,GMT + 1,nl
sandland,Sandland,https://www.aoe2insights.com/user/787064/,Monks,787064,1,A,GMT + 2,dk
randy_pan,randy pan,https://www.aoe2insights.com/user/1070306/,Monks,1070306,2,B,GMT - 8,ca
xravyn,xRavyn,https://www.aoe2insights.com/user/6242021/,Monks,6242021,3,C,GMT + 4,am
mercurrial_,mercurial,https://www.aoe2insights.com/user/1272377/,Monks,1272377,4,D,GMT + 3,ru
leo13.,DrLoops,https://www.aoe2insights.com/user/3903933/,Monks,3903933,5,D,GMT,gb
maxpower97#7110,GdR_Mark_Landers,https://www.aoe2insights.com/user/2320032/,Monks,2320032,6,C,GMT + 1,it
Huggie,Huggieg,https://www.aoe2insights.com/user/89053/,Monks,89053,7,B,GMT,gb
evmodder,forgotfletching,https://www.aoe2insights.com/user/1826742/,Monks,1826742,8,A,GMT + 6,us
danielsery,Daniel_CZ,https://www.aoe2insights.com/user/230528/,Monks,230528,9,A,GMT + 1,cz
Danielsiii,Danielsiii,https://www.aoe2insights.com/user/12025616/,Monks,9380244,10,B,GMT + 1,cz
razveen,Awake,https://www.aoe2insights.com/user/9457485/,Monks,9457485,11,C,GMT + 2,ro
ronny_hotdogs,Ronnie Hotdogs,https://www.aoe2insights.com/user/5405126/,Monks,5405126,12,D,GMT,gb
hannah922,hannah,https://www.aoe2insights.com/user/6030844/,Monks,6030844,13,D,GMT + 1,at
chelbird,chelbird,https://www.aoe2insights.com/user/2543478/,Monks,2543478,14,C,GMT + 2,at
paradox303,paradox303,https://www.aoe2insights.com/user/243303/,Monks,243303,15,B,GMT - 5,gb
jojo_baum,JoJo_Baum,https://www.aoe2insights.com/user/2334926/,Monks,2334926,16,A,GMT + 1,de
polovb,SilverPython,https://www.aoe2insights.com/user/3406947/,Monks,3406947,17,A,GMT + 1,fr
theyelloone,Yello,https://www.aoe2insights.com/user/3486707/,Monks,3486707,18,B,GMT + 1,de
Row row your boat,Blind bun game facilitator,https://www.aoe2insights.com/user/524610/,Monks,524610,19,C,GMT - 7,us
davidsierraf,David Rasie,https://www.aoe2insights.com/user/391135/,Monks,391135,20,D,GMT - 3,cl
Dio_roja,Dio_roja,https://www.aoe2insights.com/user/2439151/,Mangonels,2439151,1,A,GMT + 2,fi
BoxerSaint,BoxerSaint,https://www.aoe2insights.com/user/5587855/,Mangonels,5587855,2,B,GMT - 6,us
Next_Lever,NEXT_LEVER,https://www.aoe2insights.com/user/2437284/,Mangonels,2437284,3,C,GMT + 1,gb
lukewarmweeb,lukewarmweeb,https://www.aoe2insights.com/user/999662/,Mangonels,999662,4,D,GMT - 7,us
.auriko,Auriko,https://www.aoe2insights.com/user/12642909/,Mangonels,8106265,5,D,GMT + 1,fr
felicious69,Felix,https://www.aoe2insights.com/user/1194651/,Mangonels,1194651,6,C,GMT + 2,de
narutoshery,narutoshery,https://www.aoe2insights.com/user/10368236/,Mangonels,10368236,7,B,GMT + 5,pk
Genoese Crossbowman,MHT. Genoese Crossbowman,https://www.aoe2insights.com/user/270569/,Mangonels,270569,8,A,GMT - 3,ar
elwood.j.blues,anshumessi420(1661),https://www.aoe2insights.com/user/485328/,Mangonels,485328,9,A,GMT + 5,in
BreadPuddingWithRumSauce,Bread Pudding With Bum Sauce,https://www.aoe2insights.com/user/4578582/,Mangonels,4578582,10,B,GMT - 8,ca
m0in,M0iN,https://www.aoe2insights.com/user/286785/,Mangonels,286785,11,C,GMT + 1,de
Woiic,FakeNewsCL,https://www.aoe2insights.com/user/4152184/,Mangonels,4152184,12,D,GMT - 3,cl
simonz.cz,Simonz,https://www.aoe2insights.com/user/4401192/,Mangonels,4401192,13,D,GMT + 1,cz
profressorstrudel,bubischnecke,https://www.aoe2insights.com/user/5831503,Mangonels,5831503,14,C,GMT + 1,at
mortisandresimoes,MORTIS,https://www.aoe2insights.com/user/39425/,Mangonels,39425,15,B,GMT,pt
Lorhey,Lorhey,https://www.aoe2insights.com/user/42165/,Mangonels,42165,16,A,GMT + 1,de
dralexstewvetinari,Vetinari,https://www.aoe2insights.com/user/1663922/,Mangonels,1663922,17,A,GMT,gb
JawolopingChris,JawolopingChris,https://www.aoe2insights.com/user/303604/,Mangonels,303604,18,B,GMT - 7,us
voskarius,Voskarius,https://www.aoe2insights.com/user/364249/,Mangonels,364249,19,C,GMT + 1,cz
_hoppsy,Hoppsywins,https://www.aoe2insights.com/user/456135/,Mangonels,456135,20,D,GMT,gb
maxymczech,maxymczech,https://www.aoe2insights.com/user/5813618/,Scorpions,5813618,1,A,GMT + 2,cz
xolotlnephthys,Nephthys123,https://www.aoe2insights.com/user/3043685/,Scorpions,3043685,2,B,GMT,gb
Boarderdudeman,Boarderdudeman,https://www.aoe2insights.com/user/237994/,Scorpions,237994,3,C,GMT - 8,us
metalmania4118,Metalmania,https://www.aoe2insights.com/user/12434787/,Scorpions,9097311,4,D,GMT - 3,ar
floopssy,gLUe / Clert,https://www.aoe2insights.com/user/1233856/,Scorpions,1233856,5,D,GMT - 6,us
Fallingstar_official,Fallingstar,https://www.aoe2insights.com/user/625930/,Scorpions,625930,6,C,GMT + 1,cz
thenandoaoe,TheNando,https://www.aoe2insights.com/user/464600/,Scorpions,464600,7,B,GMT + 1,pt
diego_1898,NoTrickPony,https://www.aoe2insights.com/user/464622/,Scorpions,464622,8,A,GMT - 5,pe
Cargar,Cargar,https://www.aoe2insights.com/user/353818/,Scorpions,353818,9,A,GMT - 7,us
Spudjii,spudjii,https://www.aoe2insights.com/user/2171135/,Scorpions,2171135,10,B,GMT,gb
brogliee,J0N-PERKiNS,https://www.aoe2insights.com/user/3582838/,Scorpions,3582838,11,C,GMT,gb
pl0tterghost,Pl0tterGhost,https://www.aoe2insights.com/user/375383/,Scorpions,375383,12,D,GMT + 1,nl
alperyurtseven,WoloLoom,https://www.aoe2insights.com/user/1094269/,Scorpions,1094269,13,D,GMT + 1,tr
notoriousnacho,padfoot,https://www.aoe2insights.com/user/10594307/,Scorpions,10594307,14,C,GMT + 11,in
luckynoob007,Deaf Vader,https://www.aoe2insights.com/user/8815470/,Scorpions,8815470,15,B,GMT - 8,us
tenfingertom,tenfingertom,https://www.aoe2insights.com/user/1831227/,Scorpions,1831227,16,A,GMT - 6,us
Elladai,Elladai,https://www.aoe2insights.com/user/11779851/,Scorpions,6555726,17,A,GMT + 1,cz
_flyingmouse,Flying Mouse -AOE-,https://www.aoe2insights.com/user/227587/,Scorpions,227587,18,B,GMT + 2,de
DaBahamaLlama,DaBahamaLlama,https://www.aoe2insights.com/user/12137584/,Scorpions,4504847,19,C,GMT + 5,us
tagliola23,tagliola23,https://www.aoe2insights.com/user/2796129/,Scorpions,2796129,20,D,GMT + 1,it
pla3307,Erica,https://www.aoe2insights.com/user/12530829/,Rams,17578227,1,A,GMT - 4,us
KryptixXL,KryptixXL,https://www.aoe2insights.com/user/12288096/,Rams,15613679,2,B,GMT - 5,us
chacal7290,chacal,https://www.aoe2insights.com/user/1719797/,Rams,1719797,3,C,GMT - 5,ca
atomic_sausage,atomic_sausage,https://www.aoe2insights.com/user/959867/,Rams,959867,4,D,GMT - 4,us
mic_ultra,mic ultra,https://www.aoe2insights.com/user/2813525/,Rams,2813525,5,D,GMT - 5,us
wqyt_,qwyt,https://www.aoe2insights.com/user/445142/,Rams,445142,6,C,GMT + 2,lt
BluePlayer10,BluePlayer10,https://www.aoe2insights.com/user/404665/,Rams,404665,7,B,GMT + 11,au
Superhero55,IamSuperhero715,https://www.aoe2insights.com/user/10368917/,Rams,10368917,8,A,GMT + 5,pk
lord_of_the_marines,Humble Punisher,https://www.aoe2insights.com/user/2753259/,Rams,2753259,9,A,GMT - 6,mx
Theblindleadtheblind,theblindleadtheblind,https://www.aoe2insights.com/user/1447950/stats/3/,Rams,1447950,10,B,GMT - 5,us
GeologyWade,GeologyWade,https://www.aoe2insights.com/user/1858991/,Rams,1858991,11,C,GMT,gb
Iguanarama,Iguanarama,https://www.aoe2insights.com/user/288931/,Rams,288931,12,D,GMT,gb
ogolino,ogolino,https://www.aoe2insights.com/user/5445891/,Rams,5445891,13,D,GMT + 1,de
th1raven,Th1Raven,https://www.aoe2insights.com/user/8986711/,Rams,8986711,14,C,GMT + 1,de
canucks__,HippoOnABus,https://www.aoe2insights.com/user/1413042/,Rams,1413042,15,B,GMT - 4,us
ivan08107,Sir Alexander der Kunze,https://www.aoe2insights.com/user/12000905/,Rams,6543699,16,A,GMT + 2,de
Hannes77,Hannes77,https://www.aoe2insights.com/user/1883963/,Rams,1883963,17,A,GMT + 2,de
aanrrat,[AnnD]AAnrrat,https://www.aoe2insights.com/user/10101983/,Rams,10101983,18,B,GMT + 3,ro
mightyspacefruit,Mighty Space Fruit,https://www.aoe2insights.com/user/12772982/,Rams,4378222,19,C,GMT - 4,us
BurtusMaximus,BurtusMaximus,https://www.aoe2insights.com/user/5741157/,Rams,5741157,20,D,GMT - 8,us
AceLeviathan,AceLeviathan99,https://www.aoe2insights.com/user/1890157/,Knights,1890157,1,A,GMT - 6,us
SpazTheAdventurer,Spaz_the_Adventurer,https://www.aoe2insights.com/user/3582974/,Knights,3582974,2,B,GMT - 3,ca
jibz8021,Jibzy King,https://www.aoe2insights.com/user/4591611/,Knights,4591611,3,C,GMT + 1,fr
bgmoro,bgm,https://www.aoe2insights.com/user/11687165/,Knights,11702583,4,D,GMT + 2,ch
BoesBoes,BoesBoes,https://www.aoe2insights.com/user/2010525/,Knights,2010525,5,D,GMT + 1,nl
xardasygo,Xardas_AoE,https://www.aoe2insights.com/user/186332/,Knights,186332,6,C,GMT + 2,de
karakootildasan,Karakootil Dasan,https://www.aoe2insights.com/user/2783886/,Knights,2783886,7,B,GMT,pl
_janchez,Janchezaoe,https://www.aoe2insights.com/user/5578711/,Knights,5578711,8,A,GMT + 1,de
addictiveme,Addictiveme,https://www.aoe2insights.com/user/2158159/,Knights,2158159,9,A,GMT,ie
redclifford,Red Clifford,https://www.aoe2insights.com/user/1579558/,Knights,1579558,10,B,GMT + 1,nl
ex_tenebris.,Ex Lux,https://www.aoe2insights.com/user/12372443/,Knights,15757602,11,C,GMT - 5,us
Mathunt,Mattila_the_Hunt,https://www.aoe2insights.com/user/4940254/,Knights,4940254,12,D,GMT + 10,au
Cyvarios,Cyvarios,https://www.aoe2insights.com/user/9058532/,Knights,9058532,13,D,GMT - 8,ca
dodo3011.,dodo3011,https://www.aoe2insights.com/user/12559976/,Knights,17829013,14,C,GMT + 1,de
Nomis#4907,Saracast,https://www.aoe2insights.com/user/6874823/,Knights,6874823,15,B,GMT + 1,no
Hastyr1365,Hastur,https://www.aoe2insights.com/user/2400362/,Knights,2400362,16,A,GMT + 1,nl
Berry catcher,Berry catcher,https://www.aoe2insights.com/user/3074844/,Knights,3074844,17,A,GMT,gb
pierogieater04,Arizona Ranger,https://www.aoe2insights.com/user/3541640/,Knights,3541640,18,B,GMT + 2,pl
Syn9164,Syn,https://www.aoe2insights.com/user/12592532/,Knights,18083295,19,C,GMT - 6,us
forwardgold,forwardGold,https://www.aoe2insights.com/user/11386166/,Knights,11386166,20,D,GMT + 9,jp
Noahgiraffe,BerryTasteTester,https://www.aoe2insights.com/user/2555904/,Steppe Lancers,2555904,1,A,GMT,gb
aoe_dog,AoE_Dog,https://www.aoe2insights.com/user/2936222/,Steppe Lancers,2936222,2,B,GMT - 6,ca
thrillho12,THRILLHO,https://www.aoe2insights.com/user/5434478/,Steppe Lancers,5434478,3,C,GMT + 11,au
ryzeres2553,Ryzeres,https://www.aoe2insights.com/user/2034462/,Steppe Lancers,2034462,4,D,GMT + 1,de
JagWarrior,JagWarrior,https://www.aoe2insights.com/user/11471863/,Steppe Lancers,11471863,5,D,GMT + 1,fr
perilouspenguinaoe,Perilous Penguin,https://www.aoe2insights.com/user/12258789/,Steppe Lancers,2250490,6,C,GMT,gb
shranar,Baron Morg Von Wigard,https://www.aoe2insights.com/user/235708/,Steppe Lancers,235708,7,B,GMT + 1,fr
dizzylechuck,AoR.DizzyLeChuck,https://www.aoe2insights.com/user/344759/,Steppe Lancers,344759,8,A,GMT,gb
canuck_aoe,canuck,https://www.aoe2insights.com/user/1783740/,Steppe Lancers,1783740,9,A,GMT + 1,at
cosminb,TheBeekeeper,https://www.aoe2insights.com/user/4285252/,Steppe Lancers,4285252,10,B,GMT + 3,ro
Zark2318,Zark23,https://www.aoe2insights.com/user/5284914/,Steppe Lancers,5284914,11,C,GMT - 7,ca
bjork8361,borya14,https://www.aoe2insights.com/user/11791966/,Steppe Lancers,12420818,12,D,GMT + 1,es
yesedd,Yes_Edd,https://www.aoe2insights.com/user/2953808/,Steppe Lancers,2953808,13,D,GMT,gb
Hellowhatsyourname,Hello what's your name?,https://www.aoe2insights.com/user/490596/,Steppe Lancers,490596,14,C,GMT,gb
Salvu,Nessy,https://www.aoe2insights.com/user/730232/,Steppe Lancers,730232,15,B,GMT + 10,au
hooplah8447,hooplah,https://www.aoe2insights.com/user/2594407/,Steppe Lancers,2594407,16,A,GMT,gb
cfjc92,Chris,https://www.aoe2insights.com/user/11769331/,Steppe Lancers,7128069,17,A,GMT - 5,us
Jerkegard,Jerkegard,https://www.aoe2insights.com/user/1671834/,Steppe Lancers,1671834,18,B,GMT - 11,au
Selava#6418,The Vill’s Gambit,https://www.aoe2insights.com/user/6400696/,Steppe Lancers,6400696,19,C,GMT + 1,es
puppysaturation,PuppySaturation,https://www.aoe2insights.com/user/316336/,Steppe Lancers,316336,20,D,GMT + 1,si
volunteerdominosemployee,dadleisure,https://www.aoe2insights.com/user/2567136/,Camels,2567136,1,A,GMT - 5,ca
invincibility6,invincibility6,https://www.aoe2insights.com/user/6005863/,Camels,6005863,2,B,GMT - 5,us
Hagenhagen,Hagen,https://www.aoe2insights.com/user/10002260/,Camels,10002260,3,C,GMT + 1,cz
Goodgrill.,God Grill,https://www.aoe2insights.com/user/423866/,Camels,423866,4,D,GMT + 1,de
xvedejas,xvedejas,https://www.aoe2insights.com/user/2104992/,Camels,2104992,5,D,GMT - 8,us
player1230346,Player2,https://www.aoe2insights.com/user/1137204,Camels,1137204,6,C,GMT + 1,it
chipmun,Chipmunk,https://www.aoe2insights.com/user/282529/,Camels,282529,7,B,GMT - 3,ar
waetla,Waetla,https://www.aoe2insights.com/user/9916616/,Camels,9916616,8,A,GMT + 10,au
foreseencow,ForseenCow,https://www.aoe2insights.com/user/4720241/,Camels,4720241,9,A,GMT - 7,us
theflamingcamel,TheFlamingCamel,https://www.aoe2insights.com/user/988398/,Camels,988398,10,B,GMT - 4,in
Jz4p,Jon,https://www.aoe2insights.com/user/6073899/,Camels,6073899,11,C,GMT - 7,us
mrgraia,Mr Graia,https://www.aoe2insights.com/user/2696198/,Camels,2696198,12,D,GMT - 4,br
watermullins,watermullins,https://www.aoe2insights.com/user/5887878/,Camels,5887878,13,D,GMT - 5,us
ragnarthetueton,raggnar_lothbrook,https://www.aoe2insights.com/user/6270231/,Camels,6270231,14,C,GMT - 8,us
Tahmaquinas,TomAquinas,https://www.aoe2insights.com/user/11670083/,Camels,11758694,15,B,GMT - 4,us
lazylucretia,|LL⟩,https://www.aoe2insights.com/user/499842/,Camels,499842,16,A,GMT + 1,tr
fredericbaybars,Frédéric Baybars,https://www.aoe2insights.com/user/5829680/,Camels,5829680,17,A,GMT + 1,be
lfanboy,LeoTheCow,https://www.aoe2insights.com/user/12571037/,Camels,17789247,18,B,GMT - 5,us
Madbun_tzu,Madbun,https://www.aoe2insights.com/user/381651/,Camels,381651,19,C,GMT,ie
moggodoggo,moggo,https://www.aoe2insights.com/user/3799997/,Camels,3799997,20,D,GMT + 1,se
puresavagery,Nuka (The Nuke) Crypt,https://www.aoe2insights.com/user/4552798/,Light Cavs,4552798,1,A,GMT - 7,us
jiinska,Jiinska,https://www.aoe2insights.com/user/2989315/,Light Cavs,2989315,2,B,GMT + 2,fi
bravesirrobin2538,Brave from the River to the Sea,https://www.aoe2insights.com/user/383468/,Light Cavs,383468,3,C,GMT - 6,mx
kjricketts,KJRicketts,https://www.aoe2insights.com/user/4868034/,Light Cavs,4868034,4,D,GMT - 7,ca
dayjay_ll,Dayjay,https://www.aoe2insights.com/user/42359/,Light Cavs,42359,5,D,GMT + 1,de
.bubers,bubers,https://www.aoe2insights.com/user/262723/,Light Cavs,262723,6,C,GMT + 1,de
NOPE1585,N.O.P.E,https://www.aoe2insights.com/user/5968579/,Light Cavs,5968579,7,B,GMT + 6,in
Rameranic,Rameranic,https://www.aoe2insights.com/user/3064960/,Light Cavs,3064960,8,A,GMT - 6,us
Pleco__,Pleco__,https://www.aoe2insights.com/user/4389290/,Light Cavs,4389290,9,A,GMT + 10,au
mr_rambling,Ramble5,https://www.aoe2insights.com/user/9396328/,Light Cavs,9396328,10,B,GMT + 11,au
the_belgianwouter,the_belgian,https://www.aoe2insights.com/user/3379379/,Light Cavs,3379379,11,C,GMT + 1,be
bitermer,bitermer,https://www.aoe2insights.com/user/425587/,Light Cavs,425587,12,D,GMT + 1,nl
jonthephil,jonthephil,https://www.aoe2insights.com/user/959957/,Light Cavs,959957,13,D,GMT - 5,us
mertd014,PolishedPoo,https://www.aoe2insights.com/user/10440776/,Light Cavs,10440776,14,C,GMT + 3,tr
hurm0k,hurm0k,https://www.aoe2insights.com/user/269916,Light Cavs,269916,15,B,GMT + 1,se
c2thehill,St. Arnulf of Metz,https://www.aoe2insights.com/user/1610324/,Light Cavs,1610324,16,A,GMT + 1,de
elwood.j.blues,Slug Life,https://www.aoe2insights.com/user/377001/,Light Cavs,377001,17,A,GMT,gb
Josenblad,Josenblad,https://www.aoe2insights.com/user/92277/,Light Cavs,92277,18,B,GMT - 5,us
hdytto0,Hdytto,https://www.aoe2insights.com/user/2626196/,Light Cavs,2626196,19,C,GMT + 1,pl
Narwhal,Narwhal,https://www.aoe2insights.com/user/10903621/,Light Cavs,10903621,20,D,GMT,gb
emppeter,Emp. Peter,https://www.aoe2insights.com/user/2558975/,Eagles,2558975,1,A,GMT + 1,nl
Mchill37,Mchill37,https://www.aoe2insights.com/user/12146060/,Eagles,14334649,2,B,GMT - 5,us
lerzy_,Lerzy,https://www.aoe2insights.com/user/3015050/,Eagles,3015050,3,C,GMT + 2,fi
Redstagg,redstaggTV,https://www.aoe2insights.com/user/2646427/,Eagles,2646427,4,D,GMT + 1,at
omgkeinname,omgkeinname,https://www.aoe2insights.com/user/386981/,Eagles,386981,5,D,GMT + 1,de
benv1287,Lord Benji,https://www.aoe2insights.com/user/1859305/,Eagles,1859305,6,C,GMT - 5,us
Pumpi93,Pumpi93,https://www.aoe2insights.com/user/12150810/,Eagles,12357990,7,B,GMT + 1,de
nukleergandhi,TankDempsey,https://www.aoe2insights.com/user/728635/,Eagles,728635,8,A,GMT + 3,tr
alioriginal4326,Assistant Berry Masseuse,https://www.aoe2insights.com/user/2267866/,Eagles,2267866,9,A,GMT,gb
nessiusblaze,Nessius Blaze,https://www.aoe2insights.com/user/12094556/,Eagles,14262476,10,B,GMT + 1,hu
nomel007,NomeL™,https://www.aoe2insights.com/user/5090459/,Eagles,5090459,11,C,GMT + 2,ee
pelicanpuncher,PelicanPuncher,https://www.aoe2insights.com/user/1344619/,Eagles,1344619,12,D,GMT - 6,us
PygmyGiant,PygmyGiant,https://www.aoe2insights.com/user/5522724/,Eagles,5522724,13,D,GMT - 8,us
theparkcaman,Theparkcaman,https://www.aoe2insights.com/user/12425400/,Eagles,4676663,14,C,GMT - 3,ar
the_wyandotte,TheWyandotte,https://www.aoe2insights.com/user/6801447/,Eagles,6801447,15,B,GMT - 7,us
iwasattackedbyamonkey,IWasAttckedByAMonkey,https://www.aoe2insights.com/user/311451/,Eagles,311451,16,A,GMT - 8,us
alex.felegy,Redemption,https://www.aoe2insights.com/user/968985/,Eagles,968985,17,A,GMT - 6,us
kaibacorp,kaibacorp,https://www.aoe2insights.com/user/2202982/,Eagles,2202982,18,B,GMT,ie
joetheaverage,Arcadius,https://www.aoe2insights.com/user/12446360/,Eagles,16820059,19,C,GMT + 5,in
heroicbreadroll,HeroicBreadroll,https://www.aoe2insights.com/user/9523904/,Eagles,9523904,20,D,GMT + 10,au
jazzercized,jazzercized,https://www.aoe2insights.com/user/12712580/,Pikemen,13532781,1,A,GMT - 6,us
chuckschnorres24,chuckschnorres,https://www.aoe2insights.com/user/2317666/,Pikemen,2317666,2,B,GMT + 1,de
orangemamba,OrangeMamba,https://www.aoe2insights.com/user/648585/,Pikemen,648585,3,C,GMT - 7,us
russellale,The Tragedy of Russell,https://www.aoe2insights.com/user/2043158/,Pikemen,2043158,4,D,GMT - 5,us
ODonKir,ODonKir,https://www.aoe2insights.com/user/12113359/,Pikemen,2111738,5,D,GMT + 2,nz
javieramuy,Jafrid,https://www.aoe2insights.com/user/3206215/,Pikemen,3206215,6,C,GMT - 3,ar
snoobzilla2184,snoob1018,https://www.aoe2insights.com/user/12504986/,Pikemen,17209698,7,B,GMT + 11,au
shadout7,Sardaukar,https://www.aoe2insights.com/user/1240878/,Pikemen,1240878,8,A,GMT + 1,de
collace,collace1,https://www.aoe2insights.com/user/3084633/,Pikemen,3084633,9,A,GMT,gb
hans_hansen_,Maharaghi,https://www.aoe2insights.com/user/12866262/,Pikemen,20005194,10,B,GMT + 1,de
wertball4844,wertball,https://www.aoe2insights.com/user/1541874/,Pikemen,1541874,11,C,GMT - 8,us
dnoscope.,Al Dente,https://www.aoe2insights.com/user/1844769,Pikemen,1844769,12,D,GMT + 1,se
johanporath,Sir.Cumference,https://www.aoe2insights.com/user/3486603/matches/?page=2,Pikemen,3486603,13,D,GMT + 1,se
networkofbeans,BEANS,https://www.aoe2insights.com/user/4279270/,Pikemen,4279270,14,C,GMT + 1,us
jornado_,jornado,https://www.aoe2insights.com/user/3100958/,Pikemen,3100958,15,B,GMT - 4,ca
Nwalme583,Nwalme583,https://www.aoe2insights.com/user/668159/,Pikemen,668159,16,A,GMT - 6,us
Hagbardur#6756,Hagbardur,https://www.aoe2insights.com/user/1530308/,Pikemen,1530308,17,A,GMT,is
Clarky0202,Clarky0202,https://www.aoe2insights.com/user/697097/,Pikemen,697097,18,B,GMT + 1,gb
alcatraz5923,AlcatrazTheSergal,https://www.aoe2insights.com/user/400661/,Pikemen,400661,19,C,GMT - 3,ar
Unfunnily_Funny,rambonoon_25,https://www.aoe2insights.com/user/5553104/,Pikemen,5553104,20,D,GMT + 11,au
danjaan.,Dan-jaan,https://www.aoe2insights.com/user/4324688/,Longswords,4324688,1,A,GMT - 5,us
thepickledcabbage,PickledCabbage,https://www.aoe2insights.com/user/10592465/,Longswords,10592465,2,B,GMT - 7,ca
duncan1995,Sir Kanye of the West,https://www.aoe2insights.com/user/5123752/,Longswords,5123752,3,C,GMT,gb
tgrounds33,Lord Headass III,https://www.aoe2insights.com/user/12271613/,Longswords,11565372,4,D,GMT - 7,us
Dashermin,Norewon,https://www.aoe2insights.com/user/6073178/,Longswords,6073178,5,D,GMT - 8,us
yxzd1,Femto,https://www.aoe2insights.com/user/237473/,Longswords,237473,6,C,GMT + 1,se
tmoneymcgetbunz,tmoneymcgetbunz,https://www.aoe2insights.com/user/12158425/,Longswords,1094836,7,B,GMT - 5,us
mmmmatthewwww,mmmmatthewwww,https://www.aoe2insights.com/user/10829524/,Longswords,10829524,8,A,GMT - 7,us
ricky_ld,rickyld,https://www.aoe2insights.com/user/5172877/,Longswords,5172877,9,A,GMT + 1,at
some_kind_of_entity,birds,https://www.aoe2insights.com/user/2176509/,Longswords,2176509,10,B,GMT + 1,no
lkvr,leeroy kentins,https://www.aoe2insights.com/user/12752896/stats/3/,Longswords,19241084,11,C,GMT + 9,gb
volthe92,volthe92,https://www.aoe2insights.com/user/753558/,Longswords,753558,12,D,GMT - 3,br
LePizu,Pride,https://www.aoe2insights.com/user/5634917/,Longswords,5634917,13,D,GMT + 1,mt
mitridato,Mitridato,https://www.aoe2insights.com/user/2526635/,Longswords,2526635,14,C,GMT - 3,cl
pkinesis,pet wanties,https://www.aoe2insights.com/user/12807928/,Longswords,19612450,15,B,GMT + 5,in
roontheeternal,RoonTheEternal,https://www.aoe2insights.com/user/189537/,Longswords,189537,16,A,GMT - 7,us
tilterino,Tilterino,https://www.aoe2insights.com/user/13016010/,Longswords,21087217,17,A,GMT + 1,de
beargwyn,Beargwyn,https://www.aoe2insights.com/user/6859687/,Longswords,6859687,18,B,GMT + 1,ch
scrappy coco,grapejuice,https://www.aoe2insights.com/user/11688652/,Longswords,10930063,19,C,GMT + 8,au
timmets86,Maestro | just a fish,https://www.aoe2insights.com/user/9440670/,Longswords,9440670,20,D,GMT + 1,nl
dthomash,dthomash,https://www.aoe2insights.com/user/1656542/,Crossbows,1656542,1,A,GMT - 6,us
zetatwo,Zeta Two,https://www.aoe2insights.com/user/4805283/,Crossbows,4805283,2,B,GMT,se
darthrevan87,tejedax,https://www.aoe2insights.com/user/12747104/,Crossbows,6266579,3,C,GMT + 1,es
Jasuni,Jasuni,https://www.aoe2insights.com/user/1464223/,Crossbows,1464223,4,D,GMT - 8,us
2cheasy,2cheasy,https://www.aoe2insights.com/user/11751779/,Crossbows,10292573,5,D,GMT + 12,au
Vivevida,Hawaiian Tiger,https://www.aoe2insights.com/user/12966502/,Crossbows,20719397,6,C,GMT - 10,us
Toufi,Tonufi,https://www.aoe2insights.com/user/12148368/,Crossbows,2503157,7,B,GMT + 1,de
ekans21,SimCity2000,https://www.aoe2insights.com/user/12997473/,Crossbows,20942421,8,A,GMT,gb
fivecatsatrebuchetandadream,FiveCatsATrebuchetandaDream,https://www.aoe2insights.com/user/9705242/,Crossbows,9705242,9,A,GMT - 5,us
Maudje10,Maudje10,https://www.aoe2insights.com/user/12257117/,Crossbows,15160522,10,B,GMT + 1,nl
mango_mangudai,Mango Mangudai,https://www.aoe2insights.com/user/6825262/,Crossbows,6825262,11,C,GMT,pt
graybishop13,Bishop,https://www.aoe2insights.com/user/950113/,Crossbows,950113,12,D,GMT - 6,us
brydazi,Brydazi,https://www.aoe2insights.com/user/12783556/,Crossbows,19385547,13,D,GMT - 6,us
Yugsuph_Khan,ykgun381,https://www.aoe2insights.com/user/12387853/,Crossbows,15894232,14,C,GMT + 3,tr
greensleen,GreenSleened,https://www.aoe2insights.com/user/3083030/,Crossbows,3083030,15,B,GMT - 5,ca
RobbStark13,Robb Stark13,https://www.aoe2insights.com/user/11520491/,Crossbows,11520491,16,A,GMT + 1,de
Soft_Feather,Soft_feather,https://www.aoe2insights.com/user/1375661/,Crossbows,1375661,17,A,GMT - 7,ca
markgbr,RockyNL,https://www.aoe2insights.com/user/1386273/,Crossbows,1386273,18,B,GMT + 1,nl
jojo_ki,MonkeyJuggler,https://www.aoe2insights.com/user/4351574/,Crossbows,4351574,19,C,GMT + 1,ch
roboticpro,twitch.tv/RoboticPro,https://www.aoe2insights.com/user/3877987/,Crossbows,3877987,20,D,GMT + 1,nl
rat2691,Gerbil,https://www.aoe2insights.com/user/9649767/,Skirms,9649767,1,A,GMT - 8,us
mr.425702,Tillbert,https://www.aoe2insights.com/user/6688473/,Skirms,6688473,2,B,GMT + 1,de
outclassgamer,Kamlesh,https://www.aoe2insights.com/user/12745605/,Skirms,19189520,3,C,GMT + 5,pk
Qigong,Qigong,https://www.aoe2insights.com/user/12997993/,Skirms,20935294,4,D,GMT - 5,us
lilpuddintaters,Spaceman Rob,https://www.aoe2insights.com/user/12006801/,Skirms,13563137,5,D,GMT - 6,us
DaSwedishBeast,DaSwedishBeast,https://www.aoe2insights.com/user/2479744/,Skirms,2479744,6,C,GMT - 5,us
dominationsgamer,PrepSnow0703106,https://www.aoe2insights.com/user/12728808/,Skirms,19074123,7,B,GMT + 1,gb
ponydown,pony down,https://www.aoe2insights.com/user/12424798/,Skirms,15150439,8,A,GMT - 5,us
daniwinks,daniwinks,https://www.aoe2insights.com/user/9764808/,Skirms,9764808,9,A,GMT - 3,br
Phreej,Tas,https://www.aoe2insights.com/user/12919807/,Skirms,20391185,10,B,GMT,gb
Billydeathstalker,onager try agian,https://www.aoe2insights.com/user/4598153/,Skirms,4598153,11,C,GMT - 5,us
mr_loafy,Big Time Loaf,https://www.aoe2insights.com/user/777233/,Skirms,777233,12,D,GMT - 5,us
mathmagician93,Mathmagician,https://www.aoe2insights.com/user/4845480/,Skirms,4845480,13,D,GMT + 1,de
chaser_bait,Chaser_bait,https://www.aoe2insights.com/user/2739478/,Skirms,2739478,14,C,GMT + 12,nz
crj1732,Moderate AI,https://www.aoe2insights.com/user/2537359/,Skirms,2537359,15,B,GMT + 12,nz
12sg3,Iron Zeppelin,https://www.aoe2insights.com/user/2629029/,Skirms,2629029,16,A,GMT - 5,ca
rohgueRLP,rohgueRLP,https://www.aoe2insights.com/user/12912134/,Skirms,20306128,17,A,GMT + 1,de
PipeDownSuzy,PipeDownSuzy,https://www.aoe2insights.com/user/12987087/,Skirms,20865626,18,B,GMT,gb
enox4,Enox (NZ),https://www.aoe2insights.com/user/12337294/,Skirms,8638734,19,C,GMT + 12,nz
skilsu,Skilsu,https://www.aoe2insights.com/user/12058556/,Skirms,8886164,20,D,GMT + 1,de
benny0001,SalatNOR,https://www.aoe2insights.com/user/67395/,Spearmen,67395,1,A,GMT + 1,no
mokoto9503,Mokoto,https://www.aoe2insights.com/user/2294443/,Spearmen,2294443,2,B,GMT,pt
Garathw,King gazz,https://www.aoe2insights.com/user/11150178/,Spearmen,11150178,3,C,GMT - 10,au
danharper,DandyDan,https://www.aoe2insights.com/user/2917769/,Spearmen,2917769,4,D,GMT + 6,us
ragingsilkworms,TheSilkArmorer,https://www.aoe2insights.com/user/4775474/,Spearmen,4775474,5,D,GMT - 5,us
judson_x,Pandoo,https://www.aoe2insights.com/user/12117670/,Spearmen,14392650,6,C,GMT - 5,us
EmperorNoob97,EmperorNoob97,https://www.aoe2insights.com/user/5422400/,Spearmen,5422400,7,B,GMT,gb
mikalos0290,Mikalos - El Cerebro,https://www.aoe2insights.com/user/12594426/,Spearmen,3117590,8,A,GMT,gb
Lckmatthew,Lukee,https://www.aoe2insights.com/user/12424186/,Spearmen,4821791,9,A,GMT + 8,hk
edoooo0774,SirCameALot,https://www.aoe2insights.com/user/12387823/,Spearmen,15894035,10,B,GMT + 1,it
Silincer77,Silincer,https://www.aoe2insights.com/user/12101224/,Spearmen,14257193,11,C,GMT + 5,in
olayaklolod,Olaya,https://www.aoe2insights.com/user/41208/,Spearmen,41208,12,D,GMT + 1,fr
cptnrubberducky,CptnRubberDucky,https://www.aoe2insights.com/user/6460772/stats/3/,Spearmen,6460772,13,D,GMT - 6,us
ladyeudora,MissWheems,https://www.aoe2insights.com/user/211030/,Spearmen,211030,14,C,GMT,ie
lime86,LiMe86,https://www.aoe2insights.com/user/5822509/,Spearmen,5822509,15,B,GMT,gb
floosworld,FloosWorld,https://www.aoe2insights.com/user/1349/,Spearmen,1349,16,A,GMT + 1,de
Fj5589,Fj5589,https://www.aoe2insights.com/user/5830463/,Spearmen,5830463,17,A,GMT + 1,ar
d3nysro,D3NySRO,https://www.aoe2insights.com/user/12452427/,Spearmen,16858947,18,B,GMT + 3,ro
john_tb,JohnPOG,https://www.aoe2insights.com/user/4719594/,Spearmen,4719594,19,C,GMT - 5,us
pvt.partsnl,Pvt. Parts [NL],https://www.aoe2insights.com/user/12437665/,Spearmen,1114645,20,D,GMT + 1,nl
fortunestinky,Fortune,https://www.aoe2insights.com/user/12740800/,Archers,1181097,1,A,GMT - 7,us
Nutty6488,Nutty,https://www.aoe2insights.com/user/11720179/,Archers,12064025,2,B,GMT + 1,no
corazzo,The Master Noob,https://www.aoe2insights.com/user/12577805/,Archers,10487031,3,C,GMT,gb
drahingar,LTC_Assassin,https://www.aoe2insights.com/user/12966841/,Archers,16925988,4,D,GMT + 1,de
David810,david810,https://www.aoe2insights.com/user/12674109/,Archers,18652236,5,D,GMT - 7,us
catothegeorgist,IvanWintergreen,https://www.aoe2insights.com/user/5425658/,Archers,5425658,6,C,GMT - 5,us
nils7630,slin,https://www.aoe2insights.com/user/12555238/,Archers,17803812,7,B,GMT + 1,lu
dhruv47_,dhr10398,https://www.aoe2insights.com/user/10510225/,Archers,10510225,8,A,GMT + 5,in
codybaca,codybaca,https://www.aoe2insights.com/user/5199375/,Archers,5199375,9,A,GMT - 6,us
Enki23,JJ23,https://www.aoe2insights.com/user/1639985/,Archers,1639985,10,B,GMT + 1,de
gastlightyear,ClickBait,https://www.aoe2insights.com/user/12225770/,Archers,14979633,11,C,GMT + 1,dk
tumblwd,tumblwd,https://www.aoe2insights.com/user/1156997/,Archers,1156997,12,D,GMT,gb
Fedrick1,R.Y.N.O,https://www.aoe2insights.com/user/301279/,Archers,301279,13,D,GMT - 7,us
ksatyaki,Jack McMurdo,https://www.aoe2insights.com/user/9399463/,Archers,9399463,14,C,GMT + 5,se
j_b_a,AMATEURbobRoss,https://www.aoe2insights.com/user/2018741/,Archers,2018741,15,B,GMT - 7,ca
powmatt,P0WMATT,https://www.aoe2insights.com/user/12172519/,Archers,13006116,16,A,GMT - 5,us
iancurtis_lwtua,Ian Curtis,https://www.aoe2insights.com/user/5036955/,Archers,5036955,17,A,GMT + 1,at
princefinnik,PrinceFinnick,https://www.aoe2insights.com/user/2637747/,Archers,2637747,18,B,GMT - 8,us
numerfolt,Numerfolt,https://www.aoe2insights.com/user/1707157/,Archers,1707157,19,C,GMT + 1,de
vaga.lume,Child of Light,https://www.aoe2insights.com/user/12905234/,Archers,20161137,20,D,GMT - 5,br
Arsenikos1329,Arsenikos1329,https://www.aoe2insights.com/user/8648383/,Militia,8648383,1,A,GMT - 5,us
okamare,Okamare,https://www.aoe2insights.com/user/10587612/,Militia,10587612,2,B,GMT - 7,us
smuffinsr_01309,SMuffinSR,https://www.aoe2insights.com/user/202847/,Militia,202847,3,C,GMT + 10,au
Crazywolffox,Crazywolffox,https://www.aoe2insights.com/user/12903661/matches/,Militia,20277019,4,D,GMT + 6,us
pdoub,goldenBull,https://www.aoe2insights.com/user/12750702/,Militia,18776286,5,D,GMT + 1,de
jogum_,Jogum,https://www.aoe2insights.com/user/5707526/,Militia,5707526,6,C,GMT + 1,nl
skapaxd,skapa,https://www.aoe2insights.com/user/4842923/,Militia,4842923,7,B,GMT - 5,in
hamma1106,Hamma,https://www.aoe2insights.com/user/12295739/,Militia,15326931,8,A,GMT + 1,tn
trojanhell2495,TrojanHell2495,https://www.aoe2insights.com/user/12799996/,Militia,19558992,9,A,GMT + 11,au
sportsinfoguy,QuailzEnFire903,https://www.aoe2insights.com/user/12964183/,Militia,16924104,10,B,GMT - 5,us
0x000ff4,FAILEDFEMBOY,https://www.aoe2insights.com/user/6842441/,Militia,6842441,11,C,GMT + 2,bg
Schraubear,Schraubear,https://www.aoe2insights.com/user/12774454/,Militia,19379506,12,D,GMT + 1,de
krystalstarfox,Queen Dizzy,https://www.aoe2insights.com/user/12804586/,Militia,19106239,13,D,GMT,gb
dufflekerfuffle,Lord Squirrel The Painted,https://www.aoe2insights.com/user/4680930/,Militia,4680930,14,C,GMT + 1,fr
dumbcube,dumbcube,https://www.aoe2insights.com/user/11763878/,Militia,12245069,15,B,GMT - 5,us
rockyforthewin,Rocky,https://www.aoe2insights.com/user/5581979/,Militia,5581979,16,A,GMT + 6,us
Sugarplum_Ponies,domwarner88,https://www.aoe2insights.com/user/3892612/,Militia,3892612,17,A,GMT,gb
jkjjjjj0055,tabsnotspaces,https://www.aoe2insights.com/user/9708750/,Militia,9708750,18,B,GMT - 7,us
